<svg width="197" height="20" viewBox="0 0 197 20" fill="none" xmlns="http://www.w3.org/2000/svg">
<path d="M11.906 3.94574C11.2257 3.58293 10.5001 3.28814 9.70645 3.03871C8.9128 2.78928 8.1645 2.65323 7.4162 2.65323C6.41848 2.65323 5.62483 2.87999 5.01259 3.3335C4.42302 3.78702 4.12824 4.42192 4.12824 5.1929C4.12824 5.75979 4.33232 6.23598 4.7178 6.64414C5.10329 7.0523 5.62483 7.41512 6.25975 7.7099C6.89466 8.00468 7.55226 8.29946 8.2552 8.57157C8.84477 8.77565 9.43434 9.04777 10.0239 9.34255C10.6135 9.63733 11.135 10.0001 11.6112 10.431C12.0874 10.8618 12.4729 11.406 12.745 12.0409C13.0171 12.6759 13.1531 13.4468 13.1531 14.3765C13.1531 15.4196 12.9037 16.3493 12.3822 17.211C11.8606 18.05 11.135 18.7303 10.1826 19.2065C9.23026 19.7053 8.05112 19.9547 6.69059 19.9547C5.87426 19.9547 5.05794 19.864 4.28697 19.6826C3.51599 19.5012 2.7677 19.2518 2.08743 18.9343C1.40716 18.6169 0.772243 18.2767 0.228027 17.8913L1.52054 15.669C1.95138 15.9638 2.45024 16.2586 2.99445 16.5534C3.56135 16.8255 4.12824 17.0523 4.74048 17.211C5.33005 17.3697 5.91961 17.4604 6.44115 17.4604C7.03072 17.4604 7.62028 17.347 8.18718 17.143C8.75407 16.9389 9.23026 16.6214 9.61574 16.1679C10.0012 15.7371 10.1826 15.1475 10.1826 14.4219C10.1826 13.8096 10.0239 13.2881 9.68377 12.8799C9.34363 12.4491 8.9128 12.0863 8.36858 11.7915C7.82437 11.4967 7.2348 11.2246 6.59988 10.9752C5.98764 10.7484 5.3754 10.4763 4.74048 10.2042C4.10556 9.90944 3.53867 9.56929 2.99445 9.16113C2.45024 8.75297 2.0194 8.25411 1.67927 7.66455C1.33913 7.07498 1.1804 6.32669 1.1804 5.44234C1.1804 4.39926 1.42984 3.49223 1.9287 2.72126C2.42756 1.95029 3.10783 1.33804 3.99218 0.884524C4.87653 0.431011 5.87426 0.181582 7.03072 0.13623C8.34591 0.13623 9.47969 0.294968 10.4547 0.612427C11.4298 0.929886 12.2915 1.31537 13.0398 1.76888L11.906 3.94574Z" fill="white"/>
<path d="M30.9173 19.9545H34.1372L25.7245 0.158691H25.5658L17.1531 19.9545H19.9196L21.8697 15.238H29.0578L30.9173 19.9545ZM22.8674 12.8117L25.5204 6.34914L28.0828 12.8117H22.8674Z" fill="white"/>
<path d="M38.1372 0.430908H41.017V17.1882H50.7902V19.9546H38.1372V0.430908Z" fill="white"/>
<path d="M54.7902 0.430908H67.6246V3.19734H57.67V8.77555H66.5135V11.542H57.67V17.1882H68.0101V19.9546H54.8129V0.430908H54.7902Z" fill="white"/>
<path d="M85.2074 6.28125C84.9806 6.28125 84.7765 6.46266 84.7765 6.71209C84.7765 6.84815 84.8446 6.96152 84.9353 7.05223C84.7765 8.43544 83.4387 9.50119 81.9874 9.50119C80.5362 9.50119 79.1983 8.43544 79.0396 7.05223C79.1303 6.9842 79.1983 6.84815 79.1983 6.71209C79.1983 6.48534 79.0169 6.28125 78.7675 6.28125C78.5407 6.28125 78.3367 6.46266 78.3367 6.71209C78.3367 6.87082 78.4274 7.00687 78.5407 7.0749C78.7221 8.70754 80.2868 9.97738 81.9874 9.97738C83.6881 9.97738 85.2301 8.70754 85.4115 7.0749C85.5249 7.00687 85.6155 6.87082 85.6155 6.71209C85.6155 6.48534 85.4341 6.28125 85.2074 6.28125Z" fill="white"/>
<path d="M91.1937 6.19046C90.6722 4.98865 89.9466 3.92289 89.0169 2.99319C88.0872 2.06349 87.0214 1.33786 85.8196 0.793647C84.6178 0.272108 83.3253 0 81.9647 0C80.5815 0 79.289 0.272108 78.0872 0.793647C76.8854 1.31519 75.8196 2.06349 74.9126 2.99319C74.0056 3.92289 73.28 4.98865 72.7811 6.19046C72.2596 7.39227 72.0101 8.6621 72.0101 9.99997C72.0101 11.4059 72.2596 12.6984 72.7811 13.9228C73.3026 15.1247 74.0056 16.1904 74.9126 17.0974C75.8196 18.0045 76.8854 18.7074 78.0872 19.2063C79.289 19.7051 80.5815 19.9546 81.9647 19.9546C83.3253 19.9546 84.6178 19.7051 85.8196 19.1836C87.0214 18.6621 88.0872 17.9591 89.0169 17.0521C89.9466 16.1451 90.6722 15.0793 91.171 13.8775C91.6926 12.6757 91.942 11.3832 91.942 9.99997C91.9874 8.68478 91.7153 7.39227 91.1937 6.19046ZM87.7924 14.1723C87.7924 15.0566 87.0668 15.7823 86.1824 15.7823H77.8151C76.9307 15.7823 76.2051 15.0566 76.2051 14.1723V5.80497C76.2051 4.92062 76.9307 4.19499 77.8151 4.19499H86.1824C87.0668 4.19499 87.7924 4.92062 87.7924 5.80497V14.1723Z" fill="white"/>
<path d="M95.9469 0.430908H107.648V3.19734H98.8267V9.07033H106.536V11.8141H98.8267V19.9546H95.9469V0.430908Z" fill="white"/>
<path d="M111.647 0.430908H123.348V3.19734H114.527V9.07033H122.237V11.8141H114.527V19.9546H111.647V0.430908Z" fill="white"/>
<path d="M127.824 17.3471C128.142 17.0523 128.482 16.8936 128.89 16.8936C129.253 16.8936 129.593 17.0523 129.888 17.3471C130.205 17.6419 130.364 18.0047 130.364 18.4355C130.364 18.9117 130.205 19.2745 129.888 19.5466C129.57 19.8187 129.23 19.9548 128.89 19.9548C128.505 19.9548 128.142 19.8187 127.824 19.5466C127.507 19.2745 127.348 18.889 127.348 18.4355C127.348 18.0047 127.507 17.6419 127.824 17.3471Z" fill="white"/>
<path d="M148.378 19.9545H151.666L143.094 0.158691H142.935L134.364 19.9545H137.198L139.194 15.238H146.518L148.378 19.9545ZM140.169 12.8117L142.89 6.34914L145.498 12.8117H140.169Z" fill="white"/>
<path d="M167.343 3.94574C166.663 3.58293 165.938 3.28814 165.144 3.03871C164.35 2.78928 163.602 2.65323 162.854 2.65323C161.856 2.65323 161.062 2.87999 160.45 3.3335C159.861 3.78702 159.566 4.42192 159.566 5.1929C159.566 5.75979 159.77 6.23598 160.155 6.64414C160.541 7.0523 161.062 7.41512 161.697 7.7099C162.332 8.00468 162.99 8.29946 163.693 8.57157C164.282 8.77565 164.872 9.04777 165.461 9.34255C166.051 9.63733 166.573 10.0001 167.049 10.431C167.525 10.8618 167.91 11.406 168.182 12.0409C168.455 12.6759 168.591 13.4468 168.591 14.3765C168.591 15.4196 168.341 16.3493 167.82 17.211C167.298 18.05 166.573 18.7303 165.62 19.2065C164.668 19.7053 163.489 19.9547 162.128 19.9547C161.312 19.9547 160.495 19.864 159.724 19.6826C158.954 19.5012 158.205 19.2518 157.525 18.9343C156.845 18.6169 156.21 18.2767 155.666 17.8913L156.958 15.669C157.389 15.9638 157.888 16.2586 158.432 16.5534C158.999 16.8255 159.566 17.0523 160.178 17.211C160.768 17.3697 161.357 17.4604 161.879 17.4604C162.468 17.4604 163.058 17.347 163.625 17.143C164.192 16.9389 164.668 16.6214 165.053 16.1679C165.439 15.7371 165.62 15.1475 165.62 14.4219C165.62 13.8096 165.461 13.2881 165.121 12.8799C164.781 12.4491 164.35 12.0863 163.806 11.7915C163.262 11.4967 162.672 11.2246 162.037 10.9752C161.425 10.7484 160.813 10.4763 160.178 10.2042C159.543 9.90944 158.976 9.56929 158.432 9.16113C157.888 8.75297 157.457 8.25411 157.117 7.66455C156.777 7.07498 156.618 6.32669 156.618 5.44234C156.618 4.39926 156.867 3.49223 157.366 2.72126C157.865 1.95029 158.545 1.33804 159.43 0.884524C160.314 0.431011 161.312 0.181582 162.468 0.13623C163.783 0.13623 164.917 0.294968 165.892 0.612427C166.867 0.929886 167.729 1.31537 168.477 1.76888L167.343 3.94574Z" fill="white"/>
<path d="M172.591 0.430908H175.471V19.9546H172.591V0.430908Z" fill="white"/>
<path d="M193.484 19.9545H196.772L188.201 0.158691H188.042L179.47 19.9545H182.305L184.3 15.238H191.625L193.484 19.9545ZM185.253 12.8117L187.974 6.34914L190.582 12.8117H185.253Z" fill="white"/>
</svg>
