<svg width="120" height="120" viewBox="0 0 120 120" fill="none" xmlns="http://www.w3.org/2000/svg">
<path d="M110.58 120H9.41997C4.21282 120 0 115.787 0 110.58V9.41997C0 4.21282 4.21282 0 9.41997 0H110.58C115.787 0 120 4.21282 120 9.41997V110.58C120 115.787 115.787 120 110.58 120Z" fill="#BC3535"/>
<path d="M92.0017 9.47217C89.6467 9.47217 87.7627 11.3823 87.7627 13.7112C87.7627 15.0718 88.4168 16.2755 89.4112 17.0343C87.7365 30.7718 74.5224 41.4477 60.1308 41.4477C45.7391 41.4477 32.3157 30.7718 30.641 17.0343C31.6353 16.2493 32.2895 15.0718 32.2895 13.7112C32.2895 11.3562 30.3793 9.47217 28.0505 9.47217C25.6955 9.47217 23.8115 11.3823 23.8115 13.7112C23.8115 15.255 24.6489 16.5895 25.8787 17.3483C27.7104 33.5978 43.2271 46.2624 60.1569 46.2624C77.0867 46.2624 92.3942 33.5978 94.2258 17.3483C95.4557 16.6156 96.293 15.255 96.293 13.7112C96.2407 11.3823 94.3567 9.47217 92.0017 9.47217Z" fill="white"/>
<path d="M39.4068 109.769C39.4068 109.533 39.4853 109.35 39.6423 109.193C39.7993 109.036 39.9825 108.958 40.218 108.958C40.4535 108.958 40.6367 109.036 40.7936 109.193C40.9506 109.35 41.0291 109.559 41.0291 109.769C41.0291 110.004 40.9506 110.187 40.7936 110.344C40.6367 110.501 40.4535 110.58 40.218 110.58C39.9825 110.58 39.7993 110.501 39.6423 110.344C39.4853 110.187 39.4068 110.004 39.4068 109.769Z" fill="white"/>
<path d="M45.6606 108.46L44.9541 110.266C44.8756 110.423 44.771 110.528 44.5878 110.528H44.0383C43.8551 110.528 43.7766 110.449 43.7766 110.318C43.7766 110.292 43.7766 110.24 43.7766 110.214C43.7766 110.187 43.7766 110.187 43.8028 110.161C44.4046 108.696 44.928 107.44 45.3466 106.446C45.7653 105.451 46.1055 104.614 46.3933 103.96C46.6811 103.306 46.8905 102.808 47.0213 102.442C47.1783 102.102 47.283 101.84 47.3353 101.657C47.4138 101.5 47.44 101.369 47.4661 101.317C47.4923 101.265 47.5185 101.238 47.5446 101.16C47.5708 101.108 47.6493 101.081 47.7801 101.081H48.1465C48.2511 101.081 48.3296 101.108 48.382 101.16C48.4343 101.212 48.4605 101.265 48.4605 101.317L52.1238 110.187C52.1238 110.214 52.15 110.214 52.15 110.24C52.15 110.292 52.15 110.318 52.15 110.344C52.15 110.475 52.0453 110.554 51.8621 110.554H51.3126C51.1294 110.554 51.0248 110.475 50.9725 110.318L50.2398 108.487H45.6606V108.46ZM47.9895 102.73L46.1055 107.388H49.8473L47.9895 102.73Z" fill="white"/>
<path d="M61.4914 103.044C61.3868 102.939 61.2559 102.835 61.0989 102.73C60.9419 102.599 60.7849 102.494 60.5756 102.39C60.3924 102.285 60.1569 102.207 59.9214 102.128C59.6859 102.05 59.4243 102.023 59.1626 102.023C58.7963 102.023 58.5084 102.076 58.2468 102.154C57.9851 102.233 57.7758 102.364 57.6188 102.494C57.4618 102.651 57.3309 102.808 57.2524 102.992C57.1739 103.175 57.1216 103.358 57.1216 103.541C57.1216 103.75 57.1739 103.934 57.3309 104.091C57.4618 104.248 57.6449 104.378 57.8543 104.509C58.0636 104.614 58.3253 104.719 58.5869 104.797C58.8486 104.876 59.1364 104.954 59.3981 105.033C59.7906 105.137 60.1569 105.242 60.5756 105.373C60.9681 105.504 61.3344 105.661 61.6484 105.844C61.9624 106.027 62.2503 106.289 62.4596 106.576C62.6689 106.864 62.7736 107.231 62.7736 107.675C62.7736 108.146 62.6689 108.539 62.4857 108.905C62.3026 109.272 62.0409 109.586 61.7269 109.847C61.4129 110.109 61.0204 110.292 60.6018 110.423C60.1569 110.554 59.7121 110.632 59.1888 110.632C58.5346 110.632 57.9066 110.501 57.3048 110.24C56.7029 109.978 56.2058 109.559 55.7871 109.036C55.7086 108.931 55.6824 108.879 55.6824 108.801C55.6824 108.722 55.7086 108.644 55.7871 108.591L56.2058 108.251C56.2581 108.199 56.3366 108.199 56.3889 108.199C56.4413 108.199 56.4936 108.225 56.5721 108.277C56.6244 108.33 56.6506 108.356 56.6768 108.382C56.8599 108.565 57.0693 108.748 57.3048 108.905C57.5403 109.062 57.7758 109.167 58.0113 109.272C58.2468 109.376 58.4561 109.455 58.6916 109.481C58.9009 109.533 59.0841 109.559 59.2411 109.559C59.5028 109.559 59.7906 109.533 60.0784 109.455C60.3663 109.376 60.6279 109.272 60.8634 109.115C61.0989 108.958 61.3083 108.774 61.4391 108.539C61.5961 108.303 61.6746 108.042 61.6746 107.728C61.6746 107.466 61.5961 107.257 61.4653 107.074C61.3083 106.89 61.1251 106.76 60.8896 106.629C60.6541 106.498 60.3663 106.393 60.0784 106.315C59.7644 106.236 59.4504 106.132 59.1103 106.053C58.0636 105.791 57.2786 105.451 56.7553 105.085C56.2319 104.719 55.9703 104.195 55.9703 103.541C55.9703 103.149 56.0488 102.782 56.2058 102.468C56.3628 102.154 56.5721 101.866 56.8599 101.631C57.1478 101.395 57.4879 101.212 57.9066 101.081C58.2991 100.951 58.7701 100.898 59.2411 100.898C59.7383 100.898 60.2616 101.003 60.7849 101.238C61.3083 101.474 61.7531 101.762 62.1194 102.102C62.1718 102.154 62.2241 102.233 62.2764 102.285C62.3288 102.337 62.3549 102.416 62.3549 102.468C62.3549 102.547 62.3288 102.599 62.2503 102.678L61.8578 103.044C61.8054 103.096 61.7531 103.122 61.7007 103.122C61.6484 103.175 61.5961 103.122 61.4914 103.044Z" fill="white"/>
<path d="M68.1639 101.369V110.266C68.1639 110.449 68.0592 110.554 67.8761 110.554H67.3527C67.1696 110.554 67.0649 110.449 67.0649 110.266V101.369C67.0649 101.186 67.1696 101.081 67.3527 101.081H67.8761C68.0854 101.081 68.1639 101.186 68.1639 101.369Z" fill="white"/>
<path d="M73.9729 108.46L73.2664 110.266C73.1879 110.423 73.0832 110.528 72.9001 110.528H72.3506C72.1674 110.528 72.0889 110.449 72.0889 110.318C72.0889 110.292 72.0889 110.24 72.0889 110.214C72.0889 110.187 72.0889 110.187 72.1151 110.161C72.7169 108.696 73.2402 107.44 73.6589 106.446C74.0775 105.451 74.4177 104.614 74.7055 103.96C74.9934 103.306 75.2027 102.808 75.3336 102.442C75.4644 102.076 75.5952 101.84 75.6476 101.657C75.7261 101.5 75.7522 101.369 75.7784 101.317C75.8046 101.265 75.8307 101.238 75.8569 101.16C75.8831 101.108 75.9615 101.081 76.0924 101.081H76.4587C76.5634 101.081 76.6419 101.108 76.6942 101.16C76.7466 101.212 76.7727 101.265 76.7727 101.317L80.436 110.187C80.436 110.214 80.4622 110.214 80.4622 110.24C80.4622 110.292 80.4884 110.318 80.4884 110.344C80.4884 110.475 80.3837 110.554 80.2005 110.554H79.651C79.494 110.554 79.3632 110.475 79.3109 110.318L78.5782 108.487H73.9729V108.46ZM76.3017 102.73L74.4177 107.388H78.1595L76.3017 102.73Z" fill="white"/>
<path d="M27.344 71.801C27.2132 71.644 27.1085 71.5132 27.0562 71.3562C26.9777 71.1992 27.0562 71.0422 27.2393 70.859L28.914 69.2105C29.071 69.0797 29.2018 69.0273 29.3588 69.0797C29.4897 69.132 29.6467 69.2105 29.8037 69.3413C30.0392 69.5768 30.327 69.8385 30.641 70.1002C30.955 70.3618 31.269 70.5973 31.6353 70.8067C32.0017 71.016 32.368 71.173 32.7867 71.3038C33.2053 71.4347 33.6502 71.487 34.095 71.487C34.5922 71.487 35.037 71.4085 35.4033 71.2777C35.7697 71.1468 36.1098 70.9637 36.3715 70.7543C36.6332 70.5188 36.8425 70.2833 36.9995 69.9955C37.1303 69.7077 37.2088 69.3937 37.2088 69.0797C37.2088 68.6872 37.078 68.347 36.8425 68.0853C36.607 67.8237 36.3192 67.5882 35.9528 67.3788C35.6127 67.1957 35.2202 67.0387 34.8277 66.9078C34.4352 66.777 34.0427 66.6723 33.7287 66.5938C31.7138 65.992 30.1962 65.2593 29.1495 64.3959C28.1029 63.5324 27.5795 62.381 27.5795 60.9942C27.5795 60.2354 27.7365 59.5289 28.0767 58.9009C28.3907 58.2729 28.8617 57.7234 29.4373 57.2785C30.013 56.8337 30.7195 56.4674 31.5568 56.2319C32.3942 55.9702 33.2838 55.8655 34.2782 55.8655C35.3772 55.8655 36.4238 56.1272 37.4182 56.6244C38.4125 57.1477 39.3021 57.7757 40.0348 58.5084C40.3226 58.8224 40.3226 59.1364 40.0086 59.4765L38.648 60.9419C38.491 61.0989 38.334 61.125 38.177 61.0727C38.02 61.0204 37.863 60.9157 37.706 60.7849C37.4967 60.6279 37.2873 60.4447 37.0257 60.2354C36.764 60.026 36.4762 59.8429 36.1883 59.6859C35.9005 59.5289 35.5603 59.3719 35.2202 59.241C34.88 59.1364 34.5398 59.0579 34.1735 59.0579C33.8595 59.0579 33.5193 59.084 33.2053 59.1364C32.8652 59.1887 32.5512 59.2934 32.2895 59.4242C32.0278 59.555 31.7923 59.7644 31.6092 60.026C31.426 60.2877 31.3475 60.6279 31.3475 61.0465C31.3475 61.3605 31.426 61.6222 31.6092 61.8577C31.7923 62.0932 32.0278 62.3025 32.3418 62.4595C32.6558 62.6427 33.0483 62.7997 33.4932 62.9567C33.938 63.1137 34.409 63.2445 34.9585 63.4015C35.7958 63.637 36.607 63.9249 37.3397 64.2388C38.0723 64.5528 38.7265 64.9192 39.276 65.364C39.8255 65.8088 40.2703 66.3322 40.6105 66.9602C40.9506 67.562 41.1076 68.3208 41.1076 69.1582C41.1076 70.0217 40.9245 70.8067 40.532 71.5132C40.1395 72.2197 39.6423 72.8215 39.0143 73.3187C38.3863 73.8158 37.6537 74.2083 36.8163 74.47C35.979 74.7317 35.1155 74.8625 34.2258 74.8625C32.9437 74.8625 31.6877 74.5747 30.5102 74.0252C29.2018 73.4495 28.1813 72.6907 27.344 71.801Z" fill="white"/>
<path d="M43.2533 74.0775L50.2398 56.6505C50.3968 56.3365 50.6061 56.1795 50.8678 56.1795H52.9611C53.249 56.1795 53.4583 56.3365 53.5891 56.6505L60.6018 74.0775C60.6803 74.2345 60.6803 74.3653 60.6018 74.47C60.5233 74.5485 60.4186 74.6008 60.2354 74.6008H57.5403C57.2524 74.6008 57.0431 74.4438 56.9123 74.156L55.7086 71.173H48.0941L46.9166 74.156C46.812 74.4438 46.6026 74.6008 46.2886 74.6008H43.5673C43.201 74.6008 43.0963 74.4177 43.2533 74.0775ZM51.9145 60.9419L49.2455 67.9807H54.5049L51.9145 60.9419Z" fill="white"/>
<path d="M63.8988 56.7029C63.8988 56.5459 63.9511 56.415 64.0557 56.3104C64.1604 56.2057 64.2913 56.1534 64.4744 56.1534H67.0126C67.3527 56.1534 67.5359 56.3365 67.5621 56.7029V71.2253H74.8102C74.9672 71.2253 75.0981 71.2777 75.2027 71.3823C75.3074 71.487 75.3597 71.6178 75.3597 71.801V74.0513C75.3597 74.3915 75.1766 74.5747 74.8102 74.6008H64.4482C64.0819 74.6008 63.8988 74.4177 63.8988 74.0513V56.7029Z" fill="white"/>
<path d="M79.3894 74.1037V56.6767C79.3894 56.3365 79.5464 56.1795 79.8604 56.1795H92.0017C92.3418 56.1795 92.4988 56.3365 92.4988 56.6767V59.084C92.4988 59.4242 92.3418 59.5812 92.0017 59.5812H83.0004V63.323H89.856C90.2223 63.323 90.4055 63.48 90.4055 63.8202V66.1752C90.4055 66.5153 90.2223 66.6723 89.856 66.6723H83.0004V71.2253H92.211C92.5512 71.2253 92.7343 71.3823 92.7343 71.7225V74.1037C92.7343 74.4438 92.5512 74.6008 92.211 74.6008H79.8604C79.5464 74.6008 79.3894 74.4176 79.3894 74.1037Z" fill="white"/>
<path d="M52.15 86.716C52.15 88.0243 51.8883 89.2541 51.4173 90.4054C50.9201 91.5568 50.2398 92.5511 49.3763 93.4146C48.5128 94.2781 47.5185 94.9323 46.341 95.4294C45.1896 95.9266 43.9598 96.1621 42.6515 96.1621C41.3431 96.1621 40.1133 95.9266 38.962 95.4294C37.8107 94.9323 36.8163 94.2519 35.9528 93.4146C35.0893 92.5511 34.4352 91.5568 33.938 90.4054C33.4408 89.2541 33.2053 88.0243 33.2053 86.716C33.2053 85.3815 33.4408 84.1516 33.938 83.0003C34.4352 81.849 35.0893 80.8546 35.9528 79.9911C36.8163 79.1276 37.8107 78.4735 38.962 77.9763C40.1133 77.4791 41.3431 77.2436 42.6515 77.2436C43.9598 77.2436 45.1896 77.4791 46.341 77.9763C47.4923 78.4735 48.5128 79.1538 49.3763 79.9911C50.2398 80.8546 50.9201 81.849 51.4173 83.0003C51.9144 84.1516 52.15 85.4076 52.15 86.716ZM48.5128 86.716C48.5128 85.8786 48.3558 85.0936 48.068 84.361C47.7801 83.6283 47.3615 83.0003 46.8381 82.4508C46.3148 81.9013 45.713 81.4826 44.9803 81.1686C44.2738 80.8546 43.4888 80.6976 42.6515 80.6976C41.8141 80.6976 41.0553 80.8546 40.3488 81.1686C39.6423 81.4826 39.0143 81.9013 38.491 82.4508C37.9677 83.0003 37.5752 83.6283 37.2873 84.361C36.9995 85.0936 36.8425 85.8786 36.8425 86.716C36.8425 87.5533 36.9995 88.3121 37.2873 89.0448C37.5752 89.7774 37.9938 90.4054 38.491 90.9549C39.0143 91.5044 39.6161 91.9231 40.3488 92.2371C41.0553 92.5511 41.8403 92.7081 42.6515 92.7081C43.4888 92.7081 44.2738 92.5511 44.9803 92.2371C45.6868 91.9231 46.3148 91.5044 46.8381 90.9549C47.3615 90.4054 47.7801 89.7774 48.068 89.0448C48.3558 88.3121 48.5128 87.5533 48.5128 86.716Z" fill="white"/>
<path d="M56.5459 95.4294V78.0025C56.5459 77.6623 56.7029 77.5053 57.0169 77.5053H68.8966C69.2367 77.5053 69.3937 77.6623 69.3937 78.0025V80.4098C69.3937 80.75 69.2367 80.907 68.8966 80.907H60.1569V85.7739H66.8294C67.1434 85.7739 67.3004 85.931 67.3004 86.2711V88.5476C67.3004 88.8878 67.1434 89.0448 66.8294 89.0448H60.1569V95.4294C60.1569 95.7696 59.9999 95.9266 59.6598 95.9266H56.9908C56.7029 95.9266 56.5459 95.7696 56.5459 95.4294Z" fill="white"/>
<path d="M73.3449 95.4294V78.0025C73.3449 77.6623 73.5019 77.5053 73.8159 77.5053H85.6955C86.0357 77.5053 86.1927 77.6623 86.1927 78.0025V80.4098C86.1927 80.75 86.0357 80.907 85.6955 80.907H76.982V85.7739H83.6545C83.9685 85.7739 84.1255 85.931 84.1255 86.2711V88.5476C84.1255 88.8878 83.9685 89.0448 83.6545 89.0448H76.982V95.4294C76.982 95.7696 76.825 95.9266 76.4849 95.9266H73.8159C73.5019 95.9266 73.3449 95.7696 73.3449 95.4294Z" fill="white"/>
</svg>
