<svg width="24" height="9" viewBox="0 0 24 9" fill="none" xmlns="http://www.w3.org/2000/svg">
<path fill-rule="evenodd" clip-rule="evenodd" d="M3.63322 5.16334C3.61901 5.16334 3.59812 5.16334 3.58057 5.13931C3.25043 5.13931 2.97879 4.88054 2.97628 4.56089C2.97628 4.24364 3.24625 3.98407 3.58057 3.98086C3.91071 3.98086 4.18151 4.24043 4.18485 4.56089C4.19906 4.87734 3.96336 5.14972 3.63322 5.16334ZM3.58725 3.03151C2.70548 3.03472 1.99171 3.71889 1.99171 4.56089C1.99171 5.40208 2.70883 6.08946 3.58809 6.08946C4.46568 6.08946 5.17945 5.40609 5.1828 4.56089C5.17945 3.71488 4.46568 3.03151 3.58725 3.03151Z" fill="black"/>
<path fill-rule="evenodd" clip-rule="evenodd" d="M23.0087 8.04664H0.990423V0.953356H6.54933V3.372C6.54264 3.63397 6.76413 3.85268 7.03827 3.85268C7.31241 3.86069 7.54059 3.64759 7.54059 3.38481V3.372L7.53725 0.95656H9.37099V4.72913C9.37099 4.9919 9.59666 5.20741 9.86996 5.2002C10.1441 5.2002 10.3656 4.98869 10.3656 4.72592V0.952555H12.2002L12.2035 3.36799C12.2035 3.63076 12.425 3.84307 12.6991 3.84307C12.9733 3.84307 13.1948 3.63076 13.1948 3.36799L13.1914 0.953356H15.0252V4.72592C15.0252 4.98869 15.2467 5.2002 15.5208 5.2002C15.795 5.2002 16.0164 4.98869 16.0164 4.72592V0.952555H17.8502V3.372C17.8502 3.63397 18.0683 3.85028 18.3425 3.85028C18.6166 3.85028 18.8414 3.64118 18.8414 3.3776V3.372L18.8623 0.952555H20.6969V4.72592C20.6969 4.98869 20.9184 5.2002 21.1925 5.2002C21.4667 5.2002 21.6873 4.98869 21.6873 4.72592V0.952555H23.0087V8.04664ZM23.5044 0H0.494794C0.221487 0 0 0.212302 0 0.475076V8.52492C0 8.7877 0.221487 9 0.494794 9H23.5044C23.7785 9 24 8.7877 24 8.52492V0.475076C24 0.212302 23.7785 0 23.5044 0Z" fill="black"/>
</svg>
