<svg width="80" height="31" viewBox="0 0 80 31" fill="none" xmlns="http://www.w3.org/2000/svg">
<path fill-rule="evenodd" clip-rule="evenodd" d="M12.1107 17.8779C12.0634 17.8779 11.9937 17.8779 11.9352 17.7978C10.8348 17.7978 9.92931 16.9352 9.92095 15.8697C9.92095 14.8122 10.8208 13.947 11.9352 13.9363C13.0357 13.9363 13.9384 14.8015 13.9495 15.8697C13.9969 16.9245 13.2112 17.8325 12.1107 17.8779ZM11.9575 10.7718C9.01828 10.7825 6.63904 13.063 6.63904 15.8697C6.63904 18.6737 9.02943 20.9649 11.9603 20.9649C14.8856 20.9649 17.2648 18.687 17.276 15.8697C17.2648 13.0497 14.8856 10.7718 11.9575 10.7718Z" fill="#777777"/>
<path fill-rule="evenodd" clip-rule="evenodd" d="M76.6958 27.4889H3.30141V3.8446H21.8311V11.9067C21.8088 12.78 22.5471 13.509 23.4609 13.509C24.3747 13.5357 25.1353 12.8254 25.1353 11.9495V11.9067L25.1242 3.85528H31.2366V16.4305C31.2366 17.3064 31.9889 18.0248 32.8999 18.0007C33.8137 18.0007 34.552 17.2957 34.552 16.4198V3.84193H40.6672L40.6784 11.8934C40.6784 12.7693 41.4167 13.477 42.3305 13.477C43.2443 13.477 43.9826 12.7693 43.9826 11.8934L43.9714 3.8446H50.0839V16.4198C50.0839 17.2957 50.8222 18.0007 51.736 18.0007C52.6498 18.0007 53.3881 17.2957 53.3881 16.4198V3.84193H59.5006V11.9067C59.5006 12.78 60.2278 13.501 61.1416 13.501C62.0554 13.501 62.8048 12.804 62.8048 11.9254V11.9067L62.8745 3.84193H68.9897V16.4198C68.9897 17.2957 69.728 18.0007 70.6418 18.0007C71.5556 18.0007 72.2911 17.2957 72.2911 16.4198V3.84193H76.6958V27.4889ZM78.3479 0.666748H1.64931C0.73829 0.666748 0 1.37442 0 2.25033V29.0832C0 29.9591 0.73829 30.6667 1.64931 30.6667H78.3479C79.2617 30.6667 80 29.9591 80 29.0832V2.25033C80 1.37442 79.2617 0.666748 78.3479 0.666748Z" fill="#777777"/>
</svg>
