<svg width="40" height="11" viewBox="0 0 40 11" fill="none" xmlns="http://www.w3.org/2000/svg">
<path fill-rule="evenodd" clip-rule="evenodd" d="M20 10C17.6681 10 15.7778 7.98528 15.7778 5.5C15.7778 3.01472 17.6681 1 20 1C22.3319 1 24.2222 3.01472 24.2222 5.5C24.2222 7.98528 22.3319 10 20 10Z" fill="#777777"/>
<path fill-rule="evenodd" clip-rule="evenodd" d="M5.22222 10C2.89035 10 1 7.98528 1 5.5C1 3.01472 2.89035 1 5.22222 1C7.55409 1 9.44444 3.01472 9.44444 5.5C9.44444 7.98528 7.55409 10 5.22222 10Z" fill="#777777"/>
<path fill-rule="evenodd" clip-rule="evenodd" d="M34.7778 10C32.4459 10 30.5556 7.98528 30.5556 5.5C30.5556 3.01472 32.4459 1 34.7778 1C37.1096 1 39 3.01472 39 5.5C39 7.98528 37.1096 10 34.7778 10Z" fill="#777777"/>
<path fill-rule="evenodd" clip-rule="evenodd" d="M20 10C17.6681 10 15.7778 7.98528 15.7778 5.5C15.7778 3.01472 17.6681 1 20 1C22.3319 1 24.2222 3.01472 24.2222 5.5C24.2222 7.98528 22.3319 10 20 10Z" stroke="#777777" stroke-width="1.5" stroke-linecap="round" stroke-linejoin="round"/>
<path fill-rule="evenodd" clip-rule="evenodd" d="M5.22222 10C2.89035 10 1 7.98528 1 5.5C1 3.01472 2.89035 1 5.22222 1C7.55409 1 9.44444 3.01472 9.44444 5.5C9.44444 7.98528 7.55409 10 5.22222 10Z" stroke="#777777" stroke-width="1.5" stroke-linecap="round" stroke-linejoin="round"/>
<path fill-rule="evenodd" clip-rule="evenodd" d="M34.7778 10C32.4459 10 30.5556 7.98528 30.5556 5.5C30.5556 3.01472 32.4459 1 34.7778 1C37.1096 1 39 3.01472 39 5.5C39 7.98528 37.1096 10 34.7778 10Z" stroke="#777777" stroke-width="1.5" stroke-linecap="round" stroke-linejoin="round"/>
</svg>
