<svg width="16" height="20" viewBox="0 0 16 20" fill="none" xmlns="http://www.w3.org/2000/svg">
    <path d="M8.3649 0.00241044C8.76861 0.10664 9.19109 0.161466 9.57263 0.324136C11.1238 0.983251 12.0643 2.19725 12.3474 3.94686C12.6886 6.04772 11.5997 8.09555 9.77733 8.96554C8.27278 9.6843 6.32188 9.38005 5.10277 8.21183C3.97294 7.12737 3.47882 5.78263 3.60846 4.1752C3.77279 2.14725 5.35353 0.376553 7.26805 0.0710943C7.38859 0.0518149 7.508 0.0240993 7.62797 0L8.3649 0.00241044Z" fill="#C12229"/>
    <path d="M0.848428 20C0.248543 20 -0.0044887 19.7355 6.01891e-05 19.0993C0.00688353 18.0751 -0.00903732 17.0551 0.035883 16.0357C0.0881953 14.8307 0.482244 13.7378 1.13444 12.7533C1.71756 11.8659 2.49609 11.1426 3.40258 10.6459C4.30907 10.1492 5.31619 9.89423 6.33667 9.903C7.57738 9.903 8.81922 9.88071 10.0582 9.93011C11.6879 9.99578 13.0719 10.6965 14.2125 11.9249C15.0382 12.801 15.6028 13.9147 15.8365 15.1277C15.9279 15.6252 15.9783 16.1302 15.9871 16.6369C16.011 17.469 15.9945 18.3028 15.9934 19.136C15.9934 19.7204 15.7318 20 15.1837 20H0.848428Z" fill="#C12229"/>
</svg>
