<svg width="20" height="18" viewBox="0 0 20 18" fill="none" xmlns="http://www.w3.org/2000/svg">
<path d="M12.6949 2.27173H8.36822L10.5316 0.108398L12.6949 2.27173ZM8.39572 15.7559H12.6674L10.5316 17.8917L8.39572 15.7559ZM4.59155 3.74756L0.466553 14.2526H2.15322L2.99655 12.0067H7.68072L8.52405 14.2526H10.2107L6.09489 3.74756H4.59155ZM3.55572 10.5034L5.33405 5.75506L7.11239 10.5034H3.55572ZM13.4191 12.7951H19.0291V14.2526H11.2099V13.0701L16.6366 5.2234H11.2466V3.75673H18.8549V4.91173L13.4191 12.7951Z" fill="#333333"/>
</svg>
