<svg width="14" height="16" viewBox="0 0 14 16" fill="none" xmlns="http://www.w3.org/2000/svg">
<path fill-rule="evenodd" clip-rule="evenodd" d="M8.40383 1.36516C8.68301 1.36516 8.95075 1.47553 9.14816 1.672C9.34556 1.86847 9.45647 2.13493 9.45647 2.41278V3.4604H4.54418V2.41278C4.54418 2.13493 4.65509 1.86847 4.85249 1.672C5.0499 1.47553 5.31764 1.36516 5.59682 1.36516H8.40383ZM3.84243 3.4604V2.41278C3.84243 1.9497 4.02727 1.50559 4.35628 1.17815C4.68529 0.850704 5.13153 0.666748 5.59682 0.666748H8.40383C8.86913 0.666748 9.31536 0.850704 9.64437 1.17815C9.97338 1.50559 10.1582 1.9497 10.1582 2.41278V3.4604H13.3161C13.5099 3.4604 13.667 3.61674 13.667 3.80961C13.667 4.00247 13.5099 4.15881 13.3161 4.15881H12.2635V13.5874C12.2635 14.0505 12.0786 14.4946 11.7496 14.822C11.4206 15.1495 10.9744 15.3334 10.5091 15.3334H3.49155C3.02626 15.3334 2.58003 15.1495 2.25102 14.822C1.922 14.4946 1.73717 14.0505 1.73717 13.5874V4.15881H0.684536C0.490752 4.15881 0.333659 4.00247 0.333659 3.80961C0.333659 3.61674 0.490752 3.4604 0.684536 3.4604H3.84243ZM11.5617 4.15881V13.5874C11.5617 13.8652 11.4508 14.1317 11.2534 14.3282C11.056 14.5246 10.7883 14.635 10.5091 14.635H3.49155C3.21238 14.635 2.94464 14.5246 2.74723 14.3282C2.54982 14.1317 2.43892 13.8652 2.43892 13.5874V4.15881H11.5617ZM8.75471 5.90484C8.56093 5.90484 8.40383 6.06119 8.40383 6.25405V13.2382C8.40383 13.431 8.56093 13.5874 8.75471 13.5874C8.9485 13.5874 9.10559 13.431 9.10559 13.2382V6.25405C9.10559 6.06119 8.9485 5.90484 8.75471 5.90484ZM5.24594 5.90484C5.05216 5.90484 4.89506 6.06119 4.89506 6.25405V13.2382C4.89506 13.431 5.05216 13.5874 5.24594 13.5874C5.43972 13.5874 5.59682 13.431 5.59682 13.2382V6.25405C5.59682 6.06119 5.43972 5.90484 5.24594 5.90484Z" fill="#1A1A1A"/>
</svg>
